{
  "main": {
    "id": "853afdd663da01ab",
    "type": "split",
    "children": [
      {
        "id": "2f74f0dc454753ff",
        "type": "tabs",
        "children": [
          {
            "id": "2ae181531b4b6165",
            "type": "leaf",
            "state": {
              "type": "markdown",
              "state": {
                "file": "DevOps/GIT.md",
                "mode": "source",
                "source": false
              },
              "icon": "lucide-file",
              "title": "GIT"
            }
          }
        ]
      }
    ],
    "direction": "vertical"
  },
  "left": {
    "id": "d24e61d736ef1b04",
    "type": "split",
    "children": [
      {
        "id": "0eae78969ebfd7ef",
        "type": "tabs",
        "children": [
          {
            "id": "6833aab0253485c7",
            "type": "leaf",
            "state": {
              "type": "file-explorer",
              "state": {
                "sortOrder": "alphabetical",
                "autoReveal": false
              },
              "icon": "lucide-folder-closed",
              "title": "Files"
            }
          },
          {
            "id": "be818efa518c12c2",
            "type": "leaf",
            "state": {
              "type": "search",
              "state": {
                "query": "mutable",
                "matchingCase": false,
                "explainSearch": false,
                "collapseAll": false,
                "extraContext": false,
                "sortOrder": "alphabetical"
              },
              "icon": "lucide-search",
              "title": "Search"
            }
          },
          {
            "id": "72315656d1393789",
            "type": "leaf",
            "state": {
              "type": "bookmarks",
              "state": {},
              "icon": "lucide-bookmark",
              "title": "Bookmarks"
            }
          },
          {
            "id": "45aa6ef74fda6006",
            "type": "leaf",
            "state": {
              "type": "excalidraw",
              "state": {
                "file": "Excalidraw/Drawing 2024-07-26 10.02.34.excalidraw.md"
              },
              "icon": "excalidraw-icon",
              "title": "Drawing 2024-07-26 10.02.34.excalidraw"
            }
          }
        ]
      }
    ],
    "direction": "horizontal",
    "width": 242.5
  },
  "right": {
    "id": "9ea3228301ee5096",
    "type": "split",
    "children": [
      {
        "id": "30349276a84c6671",
        "type": "tabs",
        "children": [
          {
            "id": "0134e25eae38d2df",
            "type": "leaf",
            "state": {
              "type": "backlink",
              "state": {
                "file": "Latona/Santa.md",
                "collapseAll": false,
                "extraContext": false,
                "sortOrder": "alphabetical",
                "showSearch": false,
                "searchQuery": "",
                "backlinkCollapsed": false,
                "unlinkedCollapsed": true
              },
              "icon": "links-coming-in",
              "title": "Backlinks for Santa"
            }
          },
          {
            "id": "9724b11b94b3e45b",
            "type": "leaf",
            "state": {
              "type": "outgoing-link",
              "state": {
                "file": "Latona/Santa.md",
                "linksCollapsed": false,
                "unlinkedCollapsed": true
              },
              "icon": "links-going-out",
              "title": "Outgoing links from Santa"
            }
          },
          {
            "id": "6ef9a6228649c500",
            "type": "leaf",
            "state": {
              "type": "tag",
              "state": {
                "sortOrder": "frequency",
                "useHierarchy": true
              },
              "icon": "lucide-tags",
              "title": "Tags"
            }
          },
          {
            "id": "01d90422589d0c57",
            "type": "leaf",
            "state": {
              "type": "outline",
              "state": {
                "file": "Latona/Santa.md"
              },
              "icon": "lucide-list",
              "title": "Outline of Santa"
            }
          }
        ],
        "currentTab": 1
      }
    ],
    "direction": "horizontal",
    "width": 300,
    "collapsed": true
  },
  "left-ribbon": {
    "hiddenItems": {
      "obsidian-excalidraw-plugin:Create new drawing": false,
      "switcher:Open quick switcher": false,
      "graph:Open graph view": false,
      "canvas:Create new canvas": false,
      "daily-notes:Open today's daily note": false,
      "templates:Insert template": false,
      "command-palette:Open command palette": false
    }
  },
  "active": "2ae181531b4b6165",
  "lastOpenFiles": [
    "ToDo.md",
    "C++/C++ Advanced.md",
    "C++/C++ OOP.md",
    "C++/images",
    "C++/C++ Fundamentals.md",
    "C++/C++ Basics.md",
    "C/C Basics.md",
    "Blockchain/Blockchain Fundamentals.md",
    "Algorithms/The Big O notation.md",
    "Leetcode.md",
    "Latona/Certificate Configuration.md",
    "Shortcuts.md",
    "Vocabulary.md",
    "C++/C++ Utils.md",
    "Latona/Santa.md",
    "Latona/Santa SQL queries.md",
    "C++/C++ Data Structures.md",
    "Java/Java OOP.md",
    "C++/C++ SQL Project.md",
    "University/СУ Изпитвания.md",
    "University/ArcGis Pro.md",
    "University/Пространствено планиране.md",
    "University/География на населенията.md",
    "University/Хидрология.md",
    "University/Количествени и статистически методи.md",
    "University/ГНСС.md",
    "University/Геоморфология.md",
    "Investments",
    "JavaScript/Pasted image 20250108004634.png",
    "JavaScript/Pasted image 20250108004253.png",
    "JavaScript",
    "JavaScript/Pasted image 20250107153140.png",
    "Pasted image 20250107214714.png",
    "JavaScript/Pasted image 20250107153056.png",
    "JavaScript/Pasted image 20250107152401.png",
    "Pasted image 20250106235256.png",
    "Pasted image 20250106232406.png",
    "University/images/Pasted image 20240604230443.png",
    "University/images/Pasted image 20240604231354.png",
    "University/images",
    "Blockchain",
    "Untitled.canvas",
    "C",
    "C++",
    "Latona",
    "Java",
    "Excalidraw"
  ]
}